^C:\USERS\JAN\DOCUMENTS\VISUAL STUDIO 2010\PROJECTS\PAST PROJECT\MODELVIEWER - COPY -SO MESSY\MODELVIEWER\STDAFX.CPP
/c /ZI /nologo /W3 /WX- /Od /Oy- /D WIN32 /D _WINDOWS /D _DEBUG /D _UNICODE /D UNICODE /D _AFXDLL /Gm /EHsc /RTC1 /MDd /GS /fp:precise /Zc:wchar_t /Zc:forScope /Yc"StdAfx.h" /Fp"Debug\ModelViewer.pch" /Fo"Debug\\" /Fd"Debug\vc100.pdb" /Gd /TP /analyze- /errorReport:prompt C:\USERS\JAN\DOCUMENTS\VISUAL STUDIO 2010\PROJECTS\PAST PROJECT\MODELVIEWER - COPY -SO MESSY\MODELVIEWER\STDAFX.CPP
^C:\USERS\JAN\DOCUMENTS\VISUAL STUDIO 2010\PROJECTS\PAST PROJECT\MODELVIEWER - COPY -SO MESSY\MODELVIEWER\LOADOFFFILE.CPP
/c /ZI /nologo /W3 /WX- /Od /Oy- /D WIN32 /D _WINDOWS /D _DEBUG /D _UNICODE /D UNICODE /D _AFXDLL /Gm /EHsc /RTC1 /MDd /GS /fp:precise /Zc:wchar_t /Zc:forScope /Yu"StdAfx.h" /Fp"Debug\ModelViewer.pch" /Fo"Debug\\" /Fd"Debug\vc100.pdb" /Gd /TP /analyze- /errorReport:prompt C:\USERS\JAN\DOCUMENTS\VISUAL STUDIO 2010\PROJECTS\PAST PROJECT\MODELVIEWER - COPY -SO MESSY\MODELVIEWER\LOADOFFFILE.CPP
^C:\USERS\JAN\DOCUMENTS\VISUAL STUDIO 2010\PROJECTS\PAST PROJECT\MODELVIEWER - COPY -SO MESSY\MODELVIEWER\LOADPLYFILE.CPP
/c /ZI /nologo /W3 /WX- /Od /Oy- /D WIN32 /D _WINDOWS /D _DEBUG /D _UNICODE /D UNICODE /D _AFXDLL /Gm /EHsc /RTC1 /MDd /GS /fp:precise /Zc:wchar_t /Zc:forScope /Yu"StdAfx.h" /Fp"Debug\ModelViewer.pch" /Fo"Debug\\" /Fd"Debug\vc100.pdb" /Gd /TP /analyze- /errorReport:prompt C:\USERS\JAN\DOCUMENTS\VISUAL STUDIO 2010\PROJECTS\PAST PROJECT\MODELVIEWER - COPY -SO MESSY\MODELVIEWER\LOADPLYFILE.CPP
^C:\USERS\JAN\DOCUMENTS\VISUAL STUDIO 2010\PROJECTS\PAST PROJECT\MODELVIEWER - COPY -SO MESSY\MODELVIEWER\LOADSTLFILE.CPP
/c /ZI /nologo /W3 /WX- /Od /Oy- /D WIN32 /D _WINDOWS /D _DEBUG /D _UNICODE /D UNICODE /D _AFXDLL /Gm /EHsc /RTC1 /MDd /GS /fp:precise /Zc:wchar_t /Zc:forScope /Yu"StdAfx.h" /Fp"Debug\ModelViewer.pch" /Fo"Debug\\" /Fd"Debug\vc100.pdb" /Gd /TP /analyze- /errorReport:prompt C:\USERS\JAN\DOCUMENTS\VISUAL STUDIO 2010\PROJECTS\PAST PROJECT\MODELVIEWER - COPY -SO MESSY\MODELVIEWER\LOADSTLFILE.CPP
^C:\USERS\JAN\DOCUMENTS\VISUAL STUDIO 2010\PROJECTS\PAST PROJECT\MODELVIEWER - COPY -SO MESSY\MODELVIEWER\MAINFRM.CPP
/c /ZI /nologo /W3 /WX- /Od /Oy- /D WIN32 /D _WINDOWS /D _DEBUG /D _UNICODE /D UNICODE /D _AFXDLL /Gm /EHsc /RTC1 /MDd /GS /fp:precise /Zc:wchar_t /Zc:forScope /Yu"StdAfx.h" /Fp"Debug\ModelViewer.pch" /Fo"Debug\\" /Fd"Debug\vc100.pdb" /Gd /TP /analyze- /errorReport:prompt C:\USERS\JAN\DOCUMENTS\VISUAL STUDIO 2010\PROJECTS\PAST PROJECT\MODELVIEWER - COPY -SO MESSY\MODELVIEWER\MAINFRM.CPP
^C:\USERS\JAN\DOCUMENTS\VISUAL STUDIO 2010\PROJECTS\PAST PROJECT\MODELVIEWER - COPY -SO MESSY\MODELVIEWER\MODELVIEWER.CPP
/c /ZI /nologo /W3 /WX- /Od /Oy- /D WIN32 /D _WINDOWS /D _DEBUG /D _UNICODE /D UNICODE /D _AFXDLL /Gm /EHsc /RTC1 /MDd /GS /fp:precise /Zc:wchar_t /Zc:forScope /Yu"StdAfx.h" /Fp"Debug\ModelViewer.pch" /Fo"Debug\\" /Fd"Debug\vc100.pdb" /Gd /TP /analyze- /errorReport:prompt C:\USERS\JAN\DOCUMENTS\VISUAL STUDIO 2010\PROJECTS\PAST PROJECT\MODELVIEWER - COPY -SO MESSY\MODELVIEWER\MODELVIEWER.CPP
^C:\USERS\JAN\DOCUMENTS\VISUAL STUDIO 2010\PROJECTS\PAST PROJECT\MODELVIEWER - COPY -SO MESSY\MODELVIEWER\MODELVIEWERDOC.CPP
/c /ZI /nologo /W3 /WX- /Od /Oy- /D WIN32 /D _WINDOWS /D _DEBUG /D _UNICODE /D UNICODE /D _AFXDLL /Gm /EHsc /RTC1 /MDd /GS /fp:precise /Zc:wchar_t /Zc:forScope /Yu"StdAfx.h" /Fp"Debug\ModelViewer.pch" /Fo"Debug\\" /Fd"Debug\vc100.pdb" /Gd /TP /analyze- /errorReport:prompt C:\USERS\JAN\DOCUMENTS\VISUAL STUDIO 2010\PROJECTS\PAST PROJECT\MODELVIEWER - COPY -SO MESSY\MODELVIEWER\MODELVIEWERDOC.CPP
^C:\USERS\JAN\DOCUMENTS\VISUAL STUDIO 2010\PROJECTS\PAST PROJECT\MODELVIEWER - COPY -SO MESSY\MODELVIEWER\MODELVIEWERVIEW.CPP
/c /ZI /nologo /W3 /WX- /Od /Oy- /D WIN32 /D _WINDOWS /D _DEBUG /D _UNICODE /D UNICODE /D _AFXDLL /Gm /EHsc /RTC1 /MDd /GS /fp:precise /Zc:wchar_t /Zc:forScope /Yu"StdAfx.h" /Fp"Debug\ModelViewer.pch" /Fo"Debug\\" /Fd"Debug\vc100.pdb" /Gd /TP /analyze- /errorReport:prompt C:\USERS\JAN\DOCUMENTS\VISUAL STUDIO 2010\PROJECTS\PAST PROJECT\MODELVIEWER - COPY -SO MESSY\MODELVIEWER\MODELVIEWERVIEW.CPP
^C:\USERS\JAN\DOCUMENTS\VISUAL STUDIO 2010\PROJECTS\PAST PROJECT\MODELVIEWER - COPY -SO MESSY\MODELVIEWER\OPENGLBASEVIEW.CPP
/c /ZI /nologo /W3 /WX- /Od /Oy- /D WIN32 /D _WINDOWS /D _DEBUG /D _UNICODE /D UNICODE /D _AFXDLL /Gm /EHsc /RTC1 /MDd /GS /fp:precise /Zc:wchar_t /Zc:forScope /Yu"StdAfx.h" /Fp"Debug\ModelViewer.pch" /Fo"Debug\\" /Fd"Debug\vc100.pdb" /Gd /TP /analyze- /errorReport:prompt C:\USERS\JAN\DOCUMENTS\VISUAL STUDIO 2010\PROJECTS\PAST PROJECT\MODELVIEWER - COPY -SO MESSY\MODELVIEWER\OPENGLBASEVIEW.CPP
^C:\USERS\JAN\DOCUMENTS\VISUAL STUDIO 2010\PROJECTS\PAST PROJECT\MODELVIEWER - COPY -SO MESSY\MODELVIEWER\OPENGLPICKVIEW.CPP
/c /ZI /nologo /W3 /WX- /Od /Oy- /D WIN32 /D _WINDOWS /D _DEBUG /D _UNICODE /D UNICODE /D _AFXDLL /Gm /EHsc /RTC1 /MDd /GS /fp:precise /Zc:wchar_t /Zc:forScope /Yu"StdAfx.h" /Fp"Debug\ModelViewer.pch" /Fo"Debug\\" /Fd"Debug\vc100.pdb" /Gd /TP /analyze- /errorReport:prompt C:\USERS\JAN\DOCUMENTS\VISUAL STUDIO 2010\PROJECTS\PAST PROJECT\MODELVIEWER - COPY -SO MESSY\MODELVIEWER\OPENGLPICKVIEW.CPP
^C:\USERS\JAN\DOCUMENTS\VISUAL STUDIO 2010\PROJECTS\PAST PROJECT\MODELVIEWER - COPY -SO MESSY\MODELVIEWER\OPENGLTRACKVIEW.CPP
/c /ZI /nologo /W3 /WX- /Od /Oy- /D WIN32 /D _WINDOWS /D _DEBUG /D _UNICODE /D UNICODE /D _AFXDLL /Gm /EHsc /RTC1 /MDd /GS /fp:precise /Zc:wchar_t /Zc:forScope /Yu"StdAfx.h" /Fp"Debug\ModelViewer.pch" /Fo"Debug\\" /Fd"Debug\vc100.pdb" /Gd /TP /analyze- /errorReport:prompt C:\USERS\JAN\DOCUMENTS\VISUAL STUDIO 2010\PROJECTS\PAST PROJECT\MODELVIEWER - COPY -SO MESSY\MODELVIEWER\OPENGLTRACKVIEW.CPP
