^C:\USERS\JAN\DOCUMENTS\VISUAL STUDIO 2010\PROJECTS\PAST PROJECT\MODELVIEWER - COPY -SO MESSY\MODELVIEWER\DEBUG\LOADOFFFILE.OBJ|C:\USERS\JAN\DOCUMENTS\VISUAL STUDIO 2010\PROJECTS\PAST PROJECT\MODELVIEWER - COPY -SO MESSY\MODELVIEWER\DEBUG\LOADPLYFILE.OBJ|C:\USERS\JAN\DOCUMENTS\VISUAL STUDIO 2010\PROJECTS\PAST PROJECT\MODELVIEWER - COPY -SO MESSY\MODELVIEWER\DEBUG\LOADSTLFILE.OBJ|C:\USERS\JAN\DOCUMENTS\VISUAL STUDIO 2010\PROJECTS\PAST PROJECT\MODELVIEWER - COPY -SO MESSY\MODELVIEWER\DEBUG\MAINFRM.OBJ|C:\USERS\JAN\DOCUMENTS\VISUAL STUDIO 2010\PROJECTS\PAST PROJECT\MODELVIEWER - COPY -SO MESSY\MODELVIEWER\DEBUG\MODELVIEWER.EXE.EMBED.MANIFEST.RES|C:\USERS\JAN\DOCUMENTS\VISUAL STUDIO 2010\PROJECTS\PAST PROJECT\MODELVIEWER - COPY -SO MESSY\MODELVIEWER\DEBUG\MODELVIEWER.OBJ|C:\USERS\JAN\DOCUMENTS\VISUAL STUDIO 2010\PROJECTS\PAST PROJECT\MODELVIEWER - COPY -SO MESSY\MODELVIEWER\DEBUG\MODELVIEWER.RES|C:\USERS\JAN\DOCUMENTS\VISUAL STUDIO 2010\PROJECTS\PAST PROJECT\MODELVIEWER - COPY -SO MESSY\MODELVIEWER\DEBUG\MODELVIEWERDOC.OBJ|C:\USERS\JAN\DOCUMENTS\VISUAL STUDIO 2010\PROJECTS\PAST PROJECT\MODELVIEWER - COPY -SO MESSY\MODELVIEWER\DEBUG\MODELVIEWERVIEW.OBJ|C:\USERS\JAN\DOCUMENTS\VISUAL STUDIO 2010\PROJECTS\PAST PROJECT\MODELVIEWER - COPY -SO MESSY\MODELVIEWER\DEBUG\OPENGLBASEVIEW.OBJ|C:\USERS\JAN\DOCUMENTS\VISUAL STUDIO 2010\PROJECTS\PAST PROJECT\MODELVIEWER - COPY -SO MESSY\MODELVIEWER\DEBUG\OPENGLPICKVIEW.OBJ|C:\USERS\JAN\DOCUMENTS\VISUAL STUDIO 2010\PROJECTS\PAST PROJECT\MODELVIEWER - COPY -SO MESSY\MODELVIEWER\DEBUG\OPENGLTRACKVIEW.OBJ|C:\USERS\JAN\DOCUMENTS\VISUAL STUDIO 2010\PROJECTS\PAST PROJECT\MODELVIEWER - COPY -SO MESSY\MODELVIEWER\DEBUG\STDAFX.OBJ
/ERRORREPORT:PROMPT /OUT:"C:\Users\Jan\Documents\Visual Studio 2010\Projects\past project\ModelViewer - Copy -so messy\Debug\ModelViewer.exe" /INCREMENTAL /NOLOGO /MANIFEST /ManifestFile:"Debug\ModelViewer.exe.intermediate.manifest" /MANIFESTUAC:"level='asInvoker' uiAccess='false'" /DEBUG /PDB:"C:\Users\Jan\Documents\Visual Studio 2010\Projects\past project\ModelViewer - Copy -so messy\Debug\ModelViewer.pdb" /SUBSYSTEM:WINDOWS /TLBID:1 /ENTRY:"wWinMainCRTStartup" /DYNAMICBASE /NXCOMPAT /IMPLIB:"C:\Users\Jan\Documents\Visual Studio 2010\Projects\past project\ModelViewer - Copy -so messy\Debug\ModelViewer.lib" /MACHINE:X86 Debug\ModelViewer.res
Debug\ModelViewer.exe.embed.manifest.res
Debug\LoadOffFile.obj
Debug\LoadPlyFile.obj
Debug\LoadStlFile.obj
Debug\MainFrm.obj
Debug\ModelViewer.obj
Debug\ModelViewerDoc.obj
Debug\ModelViewerView.obj
Debug\OpenGLBaseView.obj
Debug\OpenGLPickView.obj
Debug\OpenGLTrackView.obj
Debug\stdafx.obj
